[{"line":1,"elements":[{"line":4,"name":"Karate Config TC","description":"","id":"karate-config-tc","type":"scenario","keyword":"Scenario","steps":[{"name":"url baseUrl","result":{"duration":170071,"status":"passed"},"match":{"location":"karate","arguments":[]},"keyword":"Given","line":5,"doc_string":{"content_type":"","value":"15:21:39.631 From karate-config file","line":5}},{"name":"path listUsers","result":{"duration":155824,"status":"passed"},"match":{"location":"karate","arguments":[]},"keyword":"And","line":6},{"name":"method get","result":{"duration":1621538920,"status":"passed"},"match":{"location":"karate","arguments":[]},"keyword":"When","line":7,"doc_string":{"content_type":"","value":"15:21:40.787 request:\n1 > GET https:\/\/reqres.in\/api\/users%3Fpage=2\n1 > Accept-Encoding: gzip,deflate\n1 > Connection: Keep-Alive\n1 > Host: reqres.in\n1 > User-Agent: Apache-HttpClient\/4.5.12 (Java\/1.8.0_251)\n\n15:21:41.490 response time in milliseconds: 686.49\n1 < 200\n1 < Access-Control-Allow-Origin: *\n1 < Age: 28\n1 < CF-Cache-Status: HIT\n1 < CF-RAY: 65a0446bfc7e3c12-BLR\n1 < Cache-Control: max-age=14400\n1 < Connection: keep-alive\n1 < Content-Type: application\/json; charset=utf-8\n1 < Date: Fri, 04 Jun 2021 09:52:14 GMT\n1 < Etag: W\/\"2c1-N6Rqerxquq2kgQhL51EiSg4x0R8\"\n1 < Expect-CT: max-age=604800, report-uri=\"https:\/\/report-uri.cloudflare.com\/cdn-cgi\/beacon\/expect-ct\"\n1 < NEL: {\"report_to\":\"cf-nel\",\"max_age\":604800}\n1 < Report-To: {\"endpoints\":[{\"url\":\"https:\\\/\\\/a.nel.cloudflare.com\\\/report\\\/v2?s=C9PeZGMlSruPlIzFKoNeiHHPwmgR%2FhdhjtlqBenTEKn%2B5jcEXuU3ZGmREds8xRyOKnk%2BSGZe%2BfUyJJA8nUAwQoBOS%2Fb4C4%2FQxy%2F1EDaHIpaTCzDcxK7b\"}],\"group\":\"cf-nel\",\"max_age\":604800}\n1 < Server: cloudflare\n1 < Transfer-Encoding: chunked\n1 < Vary: Accept-Encoding\n1 < Via: 1.1 vegur\n1 < X-Powered-By: Express\n1 < alt-svc: h3-27=\":443\"; ma=86400, h3-28=\":443\"; ma=86400, h3-29=\":443\"; ma=86400, h3=\":443\"; ma=86400\n1 < cf-request-id: 0a7809177e00003c120f9e9000000001\n{\"page\":1,\"per_page\":6,\"total\":12,\"total_pages\":2,\"data\":[{\"id\":1,\"name\":\"cerulean\",\"year\":2000,\"color\":\"#98B2D1\",\"pantone_value\":\"15-4020\"},{\"id\":2,\"name\":\"fuchsia rose\",\"year\":2001,\"color\":\"#C74375\",\"pantone_value\":\"17-2031\"},{\"id\":3,\"name\":\"true red\",\"year\":2002,\"color\":\"#BF1932\",\"pantone_value\":\"19-1664\"},{\"id\":4,\"name\":\"aqua sky\",\"year\":2003,\"color\":\"#7BC4C4\",\"pantone_value\":\"14-4811\"},{\"id\":5,\"name\":\"tigerlily\",\"year\":2004,\"color\":\"#E2583E\",\"pantone_value\":\"17-1456\"},{\"id\":6,\"name\":\"blue turquoise\",\"year\":2005,\"color\":\"#53B0AE\",\"pantone_value\":\"15-5217\"}],\"support\":{\"url\":\"https:\/\/reqres.in\/#support-heading\",\"text\":\"To keep ReqRes free, contributions towards server costs are appreciated!\"}}","line":7}},{"name":"status 200","result":{"duration":40070,"status":"passed"},"match":{"location":"karate","arguments":[]},"keyword":"Then","line":8},{"name":"print response","result":{"duration":2228732,"status":"passed"},"match":{"location":"karate","arguments":[]},"keyword":"*","line":9,"doc_string":{"content_type":"","value":"15:21:41.506 [print] {\n  \"per_page\": 6,\n  \"total\": 12,\n  \"data\": [\n    {\n      \"color\": \"#98B2D1\",\n      \"year\": 2000,\n      \"name\": \"cerulean\",\n      \"id\": 1,\n      \"pantone_value\": \"15-4020\"\n    },\n    {\n      \"color\": \"#C74375\",\n      \"year\": 2001,\n      \"name\": \"fuchsia rose\",\n      \"id\": 2,\n      \"pantone_value\": \"17-2031\"\n    },\n    {\n      \"color\": \"#BF1932\",\n      \"year\": 2002,\n      \"name\": \"true red\",\n      \"id\": 3,\n      \"pantone_value\": \"19-1664\"\n    },\n    {\n      \"color\": \"#7BC4C4\",\n      \"year\": 2003,\n      \"name\": \"aqua sky\",\n      \"id\": 4,\n      \"pantone_value\": \"14-4811\"\n    },\n    {\n      \"color\": \"#E2583E\",\n      \"year\": 2004,\n      \"name\": \"tigerlily\",\n      \"id\": 5,\n      \"pantone_value\": \"17-1456\"\n    },\n    {\n      \"color\": \"#53B0AE\",\n      \"year\": 2005,\n      \"name\": \"blue turquoise\",\n      \"id\": 6,\n      \"pantone_value\": \"15-5217\"\n    }\n  ],\n  \"page\": 1,\n  \"total_pages\": 2,\n  \"support\": {\n    \"text\": \"To keep ReqRes free, contributions towards server costs are appreciated!\",\n    \"url\": \"https:\/\/reqres.in\/#support-heading\"\n  }\n}15:21:41.521 after scenario inside config","line":9}}]}],"name":"src\/test\/java\/com\/wellsfargo\/featurefiles\/Karate26_Config_validation.feature","description":"Kafka Test Suite 26\nReading global variables from Karate config file","id":"kafka-test-suite-26","keyword":"Feature","uri":"src\/test\/java\/com\/wellsfargo\/featurefiles\/Karate26_Config_validation.feature"}]